<?xml version="1.0" encoding="utf-8"?>
<!-- Generator: Adobe Illustrator 21.1.0, SVG Export Plug-In . SVG Version: 6.00 Build 0)  -->
<svg version="1.1" id="Layer_1" xmlns="http://www.w3.org/2000/svg" xmlns:xlink="http://www.w3.org/1999/xlink" x="0px" y="0px"
	 viewBox="0 0 1499.2 1016.3" style="enable-background:new 0 0 1499.2 1016.3;" xml:space="preserve">
<style type="text/css">
	.st0{enable-background:new    ;}
</style>
<g>
	<g class="st0">
		<g>
			<g>
				<defs>
					<path id="SVGID_1_" d="M145,903.5c61.5-90.6,118.5-183.8,169.7-280.8c53.4-101,109.6-200.7,167.7-299.1
						c42.4-72,88.3-142.1,135.5-211.2c22.1-32.3,50.2-60.7,76.9-89.5c8.9-9.6,21.4-17.2,33.7-21.6c7.7-2.8,20.2-0.6,26.7,4.4
						c4.6,3.5,5.6,16.6,3,23.5c-8.6,23-19.4,45.2-29.7,67.5c-48,103.7-94.5,208.1-144.8,310.7c-46.6,94.9-96.8,188-146.4,281.3
						c-30.5,57.5-64,113.4-93.7,171.2c-16,31.1-33.7,63.3-24.3,100.5c16.6,6.8,24.4-2.7,31.8-13.2c26.2-37.1,54.6-73,78.4-111.6
						c78.7-127.8,154.9-257.2,233.8-384.8c43.3-70,89.5-138.4,135.9-206.4c13-19,30.9-35,48.2-50.7c9.8-8.8,22.1-15.9,34.5-20.3
						c6.8-2.4,18.9-0.4,23.5,4.4c4.2,4.4,4.6,16.9,1.4,23.2c-19.5,38.3-41,75.6-60.8,113.8c-45.9,88.5-89.8,178-137.3,265.6
						c-42.1,77.8-88.4,153.3-131.6,230.6c-21.5,38.5-40.2,78.6-60.2,117.9c-6.5,12.8-9.7,25.3,2.7,39.6
						c24.8-2.1,44.5-16.4,61.5-33.8c88.8-90.7,169.4-188,244.1-290.8c46.9-64.5,101.7-123.6,155.6-182.7
						c16.8-18.4,41.7-30,64.1-42.3c13.5-7.4,31.4-7.5,40.4,6.2c5.4,8.2,4.5,23.7,0.9,34c-21.6,60.8-57.8,113.9-91.6,168.2
						c-41.7,66.9-83.5,133.6-125,200.5c-4.2,6.8-6.6,14.8-5.2,25c6.2-5.1,13.1-9.6,18.5-15.5c57-63,112.6-127.3,170.8-189.2
						c51.4-54.7,103.1-109.5,159.1-159.2c28.7-25.4,66.6-40.8,101.4-58.6c14-7.1,32-10.8,44.8,3.3c12.1,13.4,4,28.3-3.1,41
						c-22.8,40.7-45,81.8-70.1,121.1c-32.4,50.8-67.6,99.8-101.1,149.9c-5,7.5-7.2,16.9-5.7,31.4c8-3.4,17.8-4.8,23.5-10.4
						c28.8-28.4,57.8-56.8,84.5-87.3c38-43.5,81.9-77.7,136.9-96.6c3.5-1.2,7-2.4,10.6-3.3c35.8-9,50.3,1.6,45.9,37.6
						c-3.2,26.7-11.5,52.7-17.5,79.1c-2.2,9.6-5.2,19.1-6.1,28.8c-2.8,29.5,0.4,34.3,27.8,48c3.2,1.6,6.2,3.8,9.2,6
						c0.9,0.7,1.3,2,4.9,8c-5.8,5.9-11.8,17.3-19.7,18.8c-12.3,2.4-27.8,1.5-38.6-4.2c-16.8-9-26.5-26.1-26.7-45.9
						c-0.3-32-1.7-64.1,13.6-94.1c5.2-10.2,7.3-22.1,13.2-40.8c-52.1,26.6-94.4,49.7-126.9,90.3c-29,36.3-64.9,67.2-98.3,99.9
						c-6,5.9-14,10.3-21.8,13.4c-18.7,7.4-36.5,4.4-51.8-8.9c-14.9-12.9-18.6-30.3-10.6-47.1c13.6-28.8,28.3-57.2,45.2-84.1
						c41.1-65.3,83.6-129.7,129.4-200.3c-14.1,2.5-23.1,1.7-29,5.6c-40.9,26.8-79,57.3-113,92.3c-34.1,35-66.7,71.5-99.1,108.1
						c-48.9,55.1-96.7,111.1-145.6,166.2c-13.8,15.6-28.6,30.6-44.7,43.6c-9,7.3-21.3,12.8-32.8,14.4c-27.4,3.8-47.7-21.1-36.9-46.6
						c10.4-24.7,24.6-47.9,38.3-71.1c50.6-85.7,109.7-166.5,150.1-258.3c8.2-18.6,25-33.2,37.6-50c4.8-6.5,8.7-13.7,13.1-20.5
						c-1.6-1.9-3.2-3.8-4.9-5.7c-14,10-30.4,17.7-41.4,30.2c-44.8,50.7-89.5,101.6-131.2,154.7c-53,67.6-100.4,139.6-155.3,205.6
						c-42.1,50.7-84.8,102.2-139.4,141.2c-7,5-14,10.2-21.5,14.3c-24.1,13.2-46.1,10.6-68.6-6.2c-22.7-17-21.7-39.2-13.2-59.7
						c18.4-44.2,36.7-89.2,61.8-129.7c77.3-124.6,149.6-251.6,211-384.8c14.7-32,32.4-62.7,48.7-94c-2.3-1.6-4.6-3.2-6.9-4.8
						c-4.9,5.4-10.8,10.3-14.5,16.4c-34.1,56.9-67.5,114.2-101.8,171c-62.8,104-125.3,208.1-189.6,311.2
						c-32.4,52-68.3,101.9-103.2,152.4c-4.7,6.8-12.5,11.6-18.6,17.5c-13,12.5-26.8,22.3-46.1,14.2c-21.3-8.9-32.8-25.9-35.8-47.7
						c-3.7-27.5,2.1-53.7,15.6-78.2c54.6-99.1,109.8-197.8,163.1-297.5c35.8-67.2,69.4-135.6,102.7-204.1
						c27.9-57.4,54.7-115.4,80.3-173.9c13.7-31.2,23.7-64,38.3-104c-40.8,30.5-59.5,67.1-80,102
						c-59.6,101.7-119.7,203.2-177.7,305.8c-41.1,72.7-75.5,149.2-119.3,220.1c-49.4,80.2-86.4,169-156.5,235.5
						c-7.1,6.7-13.4,15.2-21.7,19.7c-15.3,8.2-31.6,14.9-48,0.5c-15.9-14-23.4-33.9-14.5-52.8c19.4-41.1,41.5-80.9,61.4-121.7
						c39.8-81.7,79-163.7,118-245.8c15.9-33.3,31-67,45.9-100.8c6.2-14.2,11-29.1,18.5-49.3c-22.6,6.7-27.1,20.7-33.8,32.8
						c-34.6,62.3-68.6,125-104.3,186.6c-32,55.3-65.7,109.6-99.2,164.1c-5.8,9.4-12.9,18.5-21.2,25.4c-6,5-16.9,10.4-22.4,8.1
						C11.1,833,6.2,823,1.1,815.2c-1.7-2.7-0.9-7.2-0.8-10.9c1.6-91,18.9-178.6,62-259.5c7.6-14.2,21.7-26.6,35.6-35.3
						c14.6-9.1,36-0.2,44.8,14.6c7.4,12.4,1.6,22.8-9.2,27.8c-72.1,33.2-66.7,103.9-85.6,162.9c2,1.6,4.1,3.1,6.1,4.6
						c5.2-3.6,12.2-6.1,15.2-11c53.6-88.1,106.6-176.7,160-264.9c24.8-40.9,46.4-84.4,86.4-113.9c6-4.4,11.3-11.7,17.8-12.8
						c11.4-1.8,25.1-3,34.6,1.8c4.6,2.3,5.3,20.3,1.9,28.9c-27.2,68.5-55.1,136.8-84.1,204.6c-22.6,53-45.6,106-71,157.8
						c-32.5,66.1-67.6,131-101.4,196.5c-5.3,10.2-16.8,19.2-5.3,37.7C121.4,929.8,135.2,918,145,903.5z"/>
				</defs>
				<use xlink:href="#SVGID_1_"  style="overflow:visible;fill-rule:evenodd;clip-rule:evenodd;fill:#F9F9F9;"/>
				<clipPath id="SVGID_2_">
					<use xlink:href="#SVGID_1_"  style="overflow:visible;"/>
				</clipPath>
			</g>
		</g>
	</g>
</g>
</svg>
