<svg xmlns="http://www.w3.org/2000/svg" >
    <symbol
        id="arrow"
        viewBox="0 0 11 23"
    >
        <path d="M8.706,8.155C8.165,7.708,7.142,6.069,6.63,5.542c-.54-.555-1.886-2.261-3.955-4.4C2.1.548.627-.794.183.639-.11,1.587.316,2.411,1,3.4A14.518,14.518,0,0,0,2.71,5.185,44.646,44.646,0,0,1,6.318,9.408c.525.854,1.116.944,1.419,2.342.084.39-1.8,2.115-2.042,2.4-.605.842-1.752,2.058-2.352,2.917A16.458,16.458,0,0,1,.92,19.86c-.624.559-.715.661-.912,1.895A1.2,1.2,0,0,0,1.074,23c.469.031,1.834-1.581,2.476-2.317,2.4-2.752,3.772-3.436,5.882-6.192.5-.654,1.692-2.452,1.557-3.186a11.973,11.973,0,0,0-2.283-3.15"/>
    </symbol>
</svg>

