<svg xmlns="http://www.w3.org/2000/svg">
    <symbol
        id="curved-arrow-long"
        viewBox="0 0 117 207"
    >
        <path
            d="M-41.987295,49.0145955 C-42.601497,52.6820448 -43.3549928,56.0512743 -43.7008904,59.4616376 C-44.502064,67.3892363 -43.1895229,75.1784761 -41.2422129,82.794767 C-39.697827,88.8367565 -37.4046194,94.6861652 -35.4685278,100.62906 C-34.2111433,104.48909 -32.1722173,107.922825 -29.6901683,111.08545 C-22.4151007,120.353636 -14.1359952,128.626197 -4.3386797,135.196382 C1.03862551,138.803065 6.74967515,141.935776 12.4345488,145.057268 C21.7831322,150.190575 31.915127,153.514931 41.9826165,156.794414 C53.9431942,160.689969 66.3478296,162.152088 78.983375,161.30978 C87.9187511,160.713341 96.4689656,158.642629 104.805097,155.436065 C114.242492,151.806945 122.036406,145.808894 129.004841,138.699296 C132.583478,135.048674 135.661967,130.912861 139.051763,127.072463 C141.692738,124.078112 142.521957,120.291935 144.531903,116.2038 C140.440963,116.989081 137.077342,117.639742 133.711852,118.277316 C132.860196,118.439046 131.991713,118.708285 131.144731,118.662477 C129.749923,118.588623 128.54489,117.765948 128.729992,116.355247 C128.84311,115.493307 129.852757,114.435983 130.717501,114.059235 C132.061827,113.473079 133.649217,113.478688 135.091703,113.081373 C138.456258,112.154928 141.791833,111.130324 145.14517,110.16368 C145.980933,109.922487 146.827915,109.648573 147.68705,109.564436 C153.651446,108.97828 154.466643,108.742695 155.100477,115.431607 C155.552013,120.188166 157.324505,124.81665 158.44166,129.518052 C158.594042,130.161235 158.526732,131.412075 158.27993,131.489669 C157.563828,131.715904 156.458826,131.785084 155.957742,131.370942 C155.134131,130.690365 154.429248,129.658281 154.093634,128.637416 C153.081182,125.553318 152.27253,122.401911 151.378805,119.277614 C151.045061,118.107171 150.697294,116.941403 150.169099,115.132452 C149.424017,116.682447 148.858427,117.611696 148.51253,118.616669 C146.286632,125.102716 142.765955,130.869858 138.213195,135.903135 C134.200783,140.339038 129.912588,144.569272 125.425268,148.524657 C117.394835,155.603405 107.892935,159.794375 97.5898607,162.669064 C82.4049566,166.905842 67.1873324,166.697369 51.9369882,163.860074 C43.9598419,162.375519 36.2266937,159.832704 28.6113376,156.881356 C21.718627,154.210466 14.7240169,151.789183 8.26601539,148.18063 C3.14018708,145.317158 -1.77062382,142.063851 -6.72911249,138.906835 C-14.7137376,133.823075 -21.132475,127.021046 -27.7101384,120.297544 C-33.0163943,114.875366 -36.9166234,108.744565 -39.6660418,101.88364 C-44.2954603,90.3306602 -47.3244013,78.3130561 -48.1685784,65.8598081 C-48.4452965,61.7763468 -48.1031383,57.6227712 -47.7123676,53.5327659 C-47.3580562,49.8251177 -45.6051968,48.6256945 -41.987295,49.0145955 L209.930217,209.254436" transform="translate(80.830608, 129.099609) rotate(90.000000) translate(-80.830608, -129.099609) ">
        </path>
    </symbol>
</svg>
