<svg xmlns="http://www.w3.org/2000/svg">
    <symbol
        id="squiggle-mobile"
        viewBox="0 0 14 115"
    >
        <path d="M5.06 3.936C9.35 40.162-4.93 75.884 1.867 112.09c.952 5.065 9.114 2.918 8.167-2.13-6.641-35.377 7.695-70.554 3.494-106.024-.6-5.064-9.075-5.122-8.468 0"/>
    </symbol>
</svg>
